{
  "name": "tora.dev",
  "version": 2,
  "alias": "nathanwong.dev",
  "env": {},
  "builds": [{ "src": "package.json", "use": "@now/static-build" }],
  "routes": [
    {
      "src": "/_next/static/(?:[^/]+/pages|chunks|runtime)/.+",
      "headers": { "cache-control": "public,max-age=31536000,immutable" }
    },
    {
      "src": "/static/.+",
      "headers": { "cache-control": "max-age=86400" }
    }
  ]
}
